:root {
	--blue: #008db2;
	--indigo: #6610f2;
	--purple: #525ddc;
	--pink: #e83e8c;
	--red: #ff6c6a;
	--orange: #fd7e14;
	--yellow: #ffc107;
	--green: #00d1b2;
	--teal: #20c997;
	--cyan: #17a2b8;
	--white: #fff;
	--gray: #6c757d;
	--gray-dark: #343a40;
	--primary: #00d1b2;
	--secondary: #525ddc;
	--success: #00d1b2;
	--info: #008db2;
	--warning: #ffc107;
	--danger: #ff6c6a;
	--light: #f8f9fa;
	--dark: #343a40;
	--breakpoint-xs: 0;
	--breakpoint-sm: 576px;
	--breakpoint-md: 768px;
	--breakpoint-lg: 992px;
	--breakpoint-xl: 1200px;
	--font-family-sans-serif: "Proxima Nova",-apple-system,BlinkMacSystemFont,"Segoe UI",Roboto,"Helvetica Neue",Arial,sans-serif,"Apple Color Emoji","Segoe UI Emoji","Segoe UI Symbol";
	--font-family-monospace: SFMono-Regular,Menlo,Monaco,Consolas,"Liberation Mono","Courier New",monospace;
}